-- Merging decision tree log ---
manifest
ADDED from /Users/attila/Dev/Multiplatform/Multido/android/app/src/main/AndroidManifest.xml:1:1-34:12
	package
		ADDED from /Users/attila/Dev/Multiplatform/Multido/android/app/src/main/AndroidManifest.xml:2:5-26
		INJECTED from /Users/attila/Dev/Multiplatform/Multido/android/app/src/main/AndroidManifest.xml
		INJECTED from /Users/attila/Dev/Multiplatform/Multido/android/app/src/main/AndroidManifest.xml
	android:versionName
		ADDED from /Users/attila/Dev/Multiplatform/Multido/android/app/src/main/AndroidManifest.xml:4:5-30
		INJECTED from /Users/attila/Dev/Multiplatform/Multido/android/app/src/main/AndroidManifest.xml
		INJECTED from /Users/attila/Dev/Multiplatform/Multido/android/app/src/main/AndroidManifest.xml
	android:versionCode
		ADDED from /Users/attila/Dev/Multiplatform/Multido/android/app/src/main/AndroidManifest.xml:3:5-28
		INJECTED from /Users/attila/Dev/Multiplatform/Multido/android/app/src/main/AndroidManifest.xml
		INJECTED from /Users/attila/Dev/Multiplatform/Multido/android/app/src/main/AndroidManifest.xml
	xmlns:android
		ADDED from /Users/attila/Dev/Multiplatform/Multido/android/app/src/main/AndroidManifest.xml:1:11-69
uses-permission#android.permission.INTERNET
ADDED from /Users/attila/Dev/Multiplatform/Multido/android/app/src/main/AndroidManifest.xml:6:5-67
MERGED from [Multido:react-native-google-analytics-bridge:unspecified] /Users/attila/Dev/Multiplatform/Multido/node_modules/react-native-google-analytics-bridge/android/build/intermediates/bundles/default/AndroidManifest.xml:11:5-67
MERGED from [com.google.android.gms:play-services-analytics:10.2.0] /Users/attila/.android/build-cache/85663fb7725979100933dd10186eb6ba7aaaced6/output/AndroidManifest.xml:20:5-66
MERGED from [com.google.android.gms:play-services-analytics-impl:10.2.0] /Users/attila/.android/build-cache/0ed7fcb990e40840dee6aaa65a74df79cba194e2/output/AndroidManifest.xml:20:5-66
	android:name
		ADDED from /Users/attila/Dev/Multiplatform/Multido/android/app/src/main/AndroidManifest.xml:6:22-64
uses-permission#android.permission.ACCESS_NETWORK_STATE
ADDED from /Users/attila/Dev/Multiplatform/Multido/android/app/src/main/AndroidManifest.xml:7:5-79
MERGED from [Multido:react-native-google-analytics-bridge:unspecified] /Users/attila/Dev/Multiplatform/Multido/node_modules/react-native-google-analytics-bridge/android/build/intermediates/bundles/default/AndroidManifest.xml:12:5-79
MERGED from [com.google.android.gms:play-services-analytics:10.2.0] /Users/attila/.android/build-cache/85663fb7725979100933dd10186eb6ba7aaaced6/output/AndroidManifest.xml:21:5-78
MERGED from [com.google.android.gms:play-services-analytics-impl:10.2.0] /Users/attila/.android/build-cache/0ed7fcb990e40840dee6aaa65a74df79cba194e2/output/AndroidManifest.xml:21:5-78
	android:name
		ADDED from /Users/attila/Dev/Multiplatform/Multido/android/app/src/main/AndroidManifest.xml:7:22-76
uses-permission#android.permission.SYSTEM_ALERT_WINDOW
ADDED from /Users/attila/Dev/Multiplatform/Multido/android/app/src/main/AndroidManifest.xml:8:5-77
MERGED from [com.facebook.react:react-native:0.43.2] /Users/attila/.android/build-cache/c8d75c6b59837bb2e6b57a3ca9311c18a73bc3c9/output/AndroidManifest.xml:11:5-78
	android:name
		ADDED from /Users/attila/Dev/Multiplatform/Multido/android/app/src/main/AndroidManifest.xml:8:22-75
uses-sdk
ADDED from /Users/attila/Dev/Multiplatform/Multido/android/app/src/main/AndroidManifest.xml:10:5-12:41
MERGED from [Multido:react-native-google-analytics-bridge:unspecified] /Users/attila/Dev/Multiplatform/Multido/node_modules/react-native-google-analytics-bridge/android/build/intermediates/bundles/default/AndroidManifest.xml:7:5-9:41
MERGED from [com.google.android.gms:play-services-analytics:10.2.0] /Users/attila/.android/build-cache/85663fb7725979100933dd10186eb6ba7aaaced6/output/AndroidManifest.xml:17:5-43
MERGED from [com.google.android.gms:play-services-tagmanager-v4-impl:10.2.0] /Users/attila/.android/build-cache/a98d4e87cdc39085077c3f411d77a1a369b01808/output/AndroidManifest.xml:17:5-43
MERGED from [com.google.android.gms:play-services-analytics-impl:10.2.0] /Users/attila/.android/build-cache/0ed7fcb990e40840dee6aaa65a74df79cba194e2/output/AndroidManifest.xml:17:5-43
MERGED from [com.google.android.gms:play-services-base:10.2.0] /Users/attila/.android/build-cache/30d677ddaadbde06d6a6dacd3c7dd45345490a35/output/AndroidManifest.xml:17:5-43
MERGED from [com.google.android.gms:play-services-tasks:10.2.0] /Users/attila/.android/build-cache/8a76889ea032684ac7f6f1f29ac87a0df08c33b6/output/AndroidManifest.xml:3:5-43
MERGED from [com.google.android.gms:play-services-basement:10.2.0] /Users/attila/.android/build-cache/dcb4b1b485f99da8b76ae2640ba06adf870c65dc/output/AndroidManifest.xml:17:5-43
MERGED from [com.facebook.react:react-native:0.43.2] /Users/attila/.android/build-cache/c8d75c6b59837bb2e6b57a3ca9311c18a73bc3c9/output/AndroidManifest.xml:7:5-9:41
MERGED from [com.android.support:appcompat-v7:23.0.1] /Users/attila/.android/build-cache/7ec240998d097980c61ed6469ad9c1f7fb96f90c/output/AndroidManifest.xml:20:5-43
MERGED from [com.android.support:recyclerview-v7:23.4.0] /Users/attila/.android/build-cache/e170dde5973f61fdc9855b5a036e023fcac4e9fd/output/AndroidManifest.xml:20:5-43
MERGED from [com.android.support:support-v4:24.0.0] /Users/attila/.android/build-cache/322d073f07defbca781f26cb92b74528a5761de1/output/AndroidManifest.xml:21:5-23:54
MERGED from [com.facebook.fbui.textlayoutbuilder:textlayoutbuilder:1.0.0] /Users/attila/.android/build-cache/4d676a36a86b0a817d6d82461bb2dc73ac884ca0/output/AndroidManifest.xml:14:5-16:41
MERGED from [com.facebook.fresco:fresco:1.0.1] /Users/attila/.android/build-cache/ce69e2806f32a2b796740149aa4d2d2710f10d36/output/AndroidManifest.xml:5:5-7:41
MERGED from [com.facebook.fresco:drawee:1.0.1] /Users/attila/.android/build-cache/324cff1f170e1f3ade15c68f540b87811c2dfc3c/output/AndroidManifest.xml:5:5-7:41
MERGED from [com.facebook.fresco:imagepipeline-okhttp3:1.0.1] /Users/attila/.android/build-cache/bbcfcdb12c38779752429539fcf83a482e28fa7d/output/AndroidManifest.xml:5:5-7:41
MERGED from [com.facebook.fresco:imagepipeline:1.0.1] /Users/attila/.android/build-cache/be2a42ae1cac9814794c0b91cadbe9aba58c9850/output/AndroidManifest.xml:5:5-7:41
MERGED from [com.facebook.fresco:imagepipeline-base:1.0.1] /Users/attila/.android/build-cache/4484ce1f18973e5c0bea6df25f166879408a386c/output/AndroidManifest.xml:5:5-7:41
MERGED from [com.facebook.fresco:fbcore:1.0.1] /Users/attila/.android/build-cache/073d0af1ada3895b5a22fd42c9d2b81ba7184456/output/AndroidManifest.xml:5:5-7:41
MERGED from [com.facebook.soloader:soloader:0.1.0] /Users/attila/.android/build-cache/4d95a8de7368be612ff10c5ff9770a5195f175a8/output/AndroidManifest.xml:2:3-70
	tools:overrideLibrary
		ADDED from [com.android.support:support-v4:24.0.0] /Users/attila/.android/build-cache/322d073f07defbca781f26cb92b74528a5761de1/output/AndroidManifest.xml:23:9-51
	android:targetSdkVersion
		ADDED from /Users/attila/Dev/Multiplatform/Multido/android/app/src/main/AndroidManifest.xml:12:9-38
		INJECTED from /Users/attila/Dev/Multiplatform/Multido/android/app/src/main/AndroidManifest.xml
		INJECTED from /Users/attila/Dev/Multiplatform/Multido/android/app/src/main/AndroidManifest.xml
	android:minSdkVersion
		ADDED from /Users/attila/Dev/Multiplatform/Multido/android/app/src/main/AndroidManifest.xml:11:9-35
		INJECTED from /Users/attila/Dev/Multiplatform/Multido/android/app/src/main/AndroidManifest.xml
		INJECTED from /Users/attila/Dev/Multiplatform/Multido/android/app/src/main/AndroidManifest.xml
application
ADDED from /Users/attila/Dev/Multiplatform/Multido/android/app/src/main/AndroidManifest.xml:14:5-32:19
MERGED from [com.google.android.gms:play-services-analytics:10.2.0] /Users/attila/.android/build-cache/85663fb7725979100933dd10186eb6ba7aaaced6/output/AndroidManifest.xml:26:5-19
MERGED from [com.google.android.gms:play-services-tagmanager-v4-impl:10.2.0] /Users/attila/.android/build-cache/a98d4e87cdc39085077c3f411d77a1a369b01808/output/AndroidManifest.xml:19:5-19
MERGED from [com.google.android.gms:play-services-analytics-impl:10.2.0] /Users/attila/.android/build-cache/0ed7fcb990e40840dee6aaa65a74df79cba194e2/output/AndroidManifest.xml:26:5-19
MERGED from [com.google.android.gms:play-services-base:10.2.0] /Users/attila/.android/build-cache/30d677ddaadbde06d6a6dacd3c7dd45345490a35/output/AndroidManifest.xml:18:5-20:19
MERGED from [com.google.android.gms:play-services-tasks:10.2.0] /Users/attila/.android/build-cache/8a76889ea032684ac7f6f1f29ac87a0df08c33b6/output/AndroidManifest.xml:4:5-19
MERGED from [com.google.android.gms:play-services-basement:10.2.0] /Users/attila/.android/build-cache/dcb4b1b485f99da8b76ae2640ba06adf870c65dc/output/AndroidManifest.xml:19:5-21:19
MERGED from [com.facebook.react:react-native:0.43.2] /Users/attila/.android/build-cache/c8d75c6b59837bb2e6b57a3ca9311c18a73bc3c9/output/AndroidManifest.xml:13:5-20
MERGED from [com.android.support:appcompat-v7:23.0.1] /Users/attila/.android/build-cache/7ec240998d097980c61ed6469ad9c1f7fb96f90c/output/AndroidManifest.xml:22:5-20
MERGED from [com.android.support:support-v4:24.0.0] /Users/attila/.android/build-cache/322d073f07defbca781f26cb92b74528a5761de1/output/AndroidManifest.xml:25:5-20
MERGED from [com.facebook.soloader:soloader:0.1.0] /Users/attila/.android/build-cache/4d95a8de7368be612ff10c5ff9770a5195f175a8/output/AndroidManifest.xml:3:3-17
MERGED from [org.webkit:android-jsc:r174650] /Users/attila/.android/build-cache/ff117406a4a5876993b39741e1126de1cdd12205/output/AndroidManifest.xml:2:3-17
	android:label
		ADDED from /Users/attila/Dev/Multiplatform/Multido/android/app/src/main/AndroidManifest.xml:17:7-39
	android:allowBackup
		ADDED from /Users/attila/Dev/Multiplatform/Multido/android/app/src/main/AndroidManifest.xml:16:7-33
	android:icon
		ADDED from /Users/attila/Dev/Multiplatform/Multido/android/app/src/main/AndroidManifest.xml:18:7-41
	android:theme
		ADDED from /Users/attila/Dev/Multiplatform/Multido/android/app/src/main/AndroidManifest.xml:19:7-38
	android:name
		ADDED from /Users/attila/Dev/Multiplatform/Multido/android/app/src/main/AndroidManifest.xml:15:7-38
activity#com.multido.MainActivity
ADDED from /Users/attila/Dev/Multiplatform/Multido/android/app/src/main/AndroidManifest.xml:20:7-30:18
	android:label
		ADDED from /Users/attila/Dev/Multiplatform/Multido/android/app/src/main/AndroidManifest.xml:22:9-41
	android:windowSoftInputMode
		ADDED from /Users/attila/Dev/Multiplatform/Multido/android/app/src/main/AndroidManifest.xml:25:9-51
	android:configChanges
		ADDED from /Users/attila/Dev/Multiplatform/Multido/android/app/src/main/AndroidManifest.xml:24:9-79
	android:theme
		ADDED from /Users/attila/Dev/Multiplatform/Multido/android/app/src/main/AndroidManifest.xml:23:9-43
	android:name
		ADDED from /Users/attila/Dev/Multiplatform/Multido/android/app/src/main/AndroidManifest.xml:21:9-37
intent-filter#android.intent.action.MAIN+android.intent.category.LAUNCHER
ADDED from /Users/attila/Dev/Multiplatform/Multido/android/app/src/main/AndroidManifest.xml:26:9-29:25
action#android.intent.action.MAIN
ADDED from /Users/attila/Dev/Multiplatform/Multido/android/app/src/main/AndroidManifest.xml:27:13-65
	android:name
		ADDED from /Users/attila/Dev/Multiplatform/Multido/android/app/src/main/AndroidManifest.xml:27:21-62
category#android.intent.category.LAUNCHER
ADDED from /Users/attila/Dev/Multiplatform/Multido/android/app/src/main/AndroidManifest.xml:28:13-73
	android:name
		ADDED from /Users/attila/Dev/Multiplatform/Multido/android/app/src/main/AndroidManifest.xml:28:23-70
activity#com.facebook.react.devsupport.DevSettingsActivity
ADDED from /Users/attila/Dev/Multiplatform/Multido/android/app/src/main/AndroidManifest.xml:31:7-84
	android:name
		ADDED from /Users/attila/Dev/Multiplatform/Multido/android/app/src/main/AndroidManifest.xml:31:17-81
uses-permission#android.permission.WAKE_LOCK
ADDED from [com.google.android.gms:play-services-analytics:10.2.0] /Users/attila/.android/build-cache/85663fb7725979100933dd10186eb6ba7aaaced6/output/AndroidManifest.xml:24:5-67
MERGED from [com.google.android.gms:play-services-analytics-impl:10.2.0] /Users/attila/.android/build-cache/0ed7fcb990e40840dee6aaa65a74df79cba194e2/output/AndroidManifest.xml:24:5-67
	android:name
		ADDED from [com.google.android.gms:play-services-analytics:10.2.0] /Users/attila/.android/build-cache/85663fb7725979100933dd10186eb6ba7aaaced6/output/AndroidManifest.xml:24:22-65
activity#com.google.android.gms.common.api.GoogleApiActivity
ADDED from [com.google.android.gms:play-services-base:10.2.0] /Users/attila/.android/build-cache/30d677ddaadbde06d6a6dacd3c7dd45345490a35/output/AndroidManifest.xml:19:9-172
	android:exported
		ADDED from [com.google.android.gms:play-services-base:10.2.0] /Users/attila/.android/build-cache/30d677ddaadbde06d6a6dacd3c7dd45345490a35/output/AndroidManifest.xml:19:146-170
	android:theme
		ADDED from [com.google.android.gms:play-services-base:10.2.0] /Users/attila/.android/build-cache/30d677ddaadbde06d6a6dacd3c7dd45345490a35/output/AndroidManifest.xml:19:86-145
	android:name
		ADDED from [com.google.android.gms:play-services-base:10.2.0] /Users/attila/.android/build-cache/30d677ddaadbde06d6a6dacd3c7dd45345490a35/output/AndroidManifest.xml:19:19-85
meta-data#com.google.android.gms.version
ADDED from [com.google.android.gms:play-services-basement:10.2.0] /Users/attila/.android/build-cache/dcb4b1b485f99da8b76ae2640ba06adf870c65dc/output/AndroidManifest.xml:20:9-121
	android:value
		ADDED from [com.google.android.gms:play-services-basement:10.2.0] /Users/attila/.android/build-cache/dcb4b1b485f99da8b76ae2640ba06adf870c65dc/output/AndroidManifest.xml:20:66-119
	android:name
		ADDED from [com.google.android.gms:play-services-basement:10.2.0] /Users/attila/.android/build-cache/dcb4b1b485f99da8b76ae2640ba06adf870c65dc/output/AndroidManifest.xml:20:20-65
uses-permission#android.permission.WRITE_EXTERNAL_STORAGE
IMPLIED from /Users/attila/Dev/Multiplatform/Multido/android/app/src/main/AndroidManifest.xml:1:1-34:12 reason: org.webkit.android_jsc has a targetSdkVersion < 4
uses-permission#android.permission.READ_PHONE_STATE
IMPLIED from /Users/attila/Dev/Multiplatform/Multido/android/app/src/main/AndroidManifest.xml:1:1-34:12 reason: org.webkit.android_jsc has a targetSdkVersion < 4
uses-permission#android.permission.READ_EXTERNAL_STORAGE
IMPLIED from /Users/attila/Dev/Multiplatform/Multido/android/app/src/main/AndroidManifest.xml:1:1-34:12 reason: org.webkit.android_jsc requested WRITE_EXTERNAL_STORAGE
