<svg width="24" height="24" xmlns="http://www.w3.org/2000/svg" xmlns:xlink="http://www.w3.org/1999/xlink">
 <!-- Created with Method Draw - http://github.com/duopixel/Method-Draw/ -->

 <g>
  <title>background</title>
  <rect fill="#fff" id="canvas_background" height="26" width="26" y="-1" x="-1"/>
  <g display="none" overflow="visible" y="0" x="0" height="100%" width="100%" id="canvasGrid">
   <rect fill="url(#gridpattern)" stroke-width="0" y="0" x="0" height="100%" width="100%"/>
  </g>
 </g>
 <g>
  <title>Layer 1</title>
  <desc transform="matrix(28.444446139865477,0,0,28.444446139865477,0,0) ">Created using Figma</desc>
  <defs>
   <path d="m0,1l16,0l0,-2l-16,0l0,2z" id="svg_8"/>
  </defs>
  <desc transform="matrix(0.10239999542236333,0,0,0.10239999542236333,0,0) ">Created using Figma</desc>
  <defs>
   <path d="m0,1l16,0l0,-2l-16,0l0,2z" id="svg_26"/>
  </defs>
  <g stroke="null" id="svg_36">
   <g stroke="null" transform="matrix(1.0321752468269192,0,0,1.0321752468269192,-28.405671946983603,-35.222119754492496) " id="svg_27">
    <g stroke="null" id="svg_28">
     <g stroke="null" id="svg_29">
      <g stroke="null" id="svg_31">
       <use stroke="null" id="svg_33" x="31.146135" y="50.750095" xlink:href="#svg_26"/>
      </g>
      <g stroke="null" id="svg_30">
       <use stroke="null" id="svg_34" x="31.146135" y="45.750095" xlink:href="#svg_26"/>
      </g>
      <g stroke="null" id="Vector 2">
       <use stroke="null" id="svg_35" x="31.146135" y="40.750095" xlink:href="#svg_26"/>
      </g>
     </g>
    </g>
   </g>
  </g>
 </g>
</svg>