<svg width="23" height="23" viewBox="0 0 23 23" version="1.1" xmlns="http://www.w3.org/2000/svg" xmlns:xlink="http://www.w3.org/1999/xlink" xmlns:figma="http://www.figma.com/figma/ns">
<title>APPmininize</title>
<desc>Created using Figma</desc>
<g id="Canvas" transform="translate(728 957)" figma:type="canvas">
<g id="APPmininize" style="mix-blend-mode:normal;" figma:type="instance">
<g id="icon" style="mix-blend-mode:normal;" figma:type="frame">
<g id="Vector 2" style="mix-blend-mode:normal;" figma:type="vector">
<use xlink:href="#path0_stroke" transform="translate(-720 -945.5)" fill="#FFFFFF" style="mix-blend-mode:normal;"/>
</g>
</g>
</g>
</g>
<defs>
<path id="path0_stroke" d="M 0 0.5L 7 0.5L 7 -0.5L 0 -0.5L 0 0.5Z"/>
</defs>
</svg>
