<?xml version="1.0" encoding="utf-8"?>
<!-- Generator: Adobe Illustrator 16.0.0, SVG Export Plug-In . SVG Version: 6.00 Build 0)  -->
<!DOCTYPE svg PUBLIC "-//W3C//DTD SVG 1.1//EN" "http://www.w3.org/Graphics/SVG/1.1/DTD/svg11.dtd">
<svg version="1.1" id="Layer_1" xmlns:figma="http://www.figma.com/figma/ns"
	 xmlns="http://www.w3.org/2000/svg" xmlns:xlink="http://www.w3.org/1999/xlink" x="0px" y="0px" width="24px" height="24px"
	 viewBox="0 0 24 24" enable-background="new 0 0 24 24" xml:space="preserve">
<path d="M12,6c3.313,0,6,2.687,6,6s-2.687,6-6,6s-6-2.687-6-6S8.687,6,12,6 M12,4c-4.411,0-8,3.589-8,8s3.589,8,8,8s8-3.589,8-8
	S16.411,4,12,4L12,4z"/>
<path id="path2_stroke" d="M11,11v5h2v-5H11z"/>
<path id="path3_stroke" d="M11,8v2h2V8H11z"/>
</svg>
