<?xml version="1.0" encoding="utf-8"?>
<!-- Generator: Adobe Illustrator 16.0.0, SVG Export Plug-In . SVG Version: 6.00 Build 0)  -->
<!DOCTYPE svg PUBLIC "-//W3C//DTD SVG 1.1//EN" "http://www.w3.org/Graphics/SVG/1.1/DTD/svg11.dtd">
<svg version="1.1" id="Layer_1" xmlns:figma="http://www.figma.com/figma/ns"
	 xmlns="http://www.w3.org/2000/svg" xmlns:xlink="http://www.w3.org/1999/xlink" x="0px" y="0px" width="24px" height="24px"
	 viewBox="0 0 24 24" enable-background="new 0 0 24 24" xml:space="preserve">
<path id="path0_stroke" d="M5.5,8.5h3v-3h-3V8.5z"/>
<path id="path0_stroke_1_" d="M10.5,8.5h3v-3h-3V8.5z"/>
<path id="path0_stroke_2_" d="M15.5,8.5h3v-3h-3V8.5z"/>
<path id="path0_stroke_3_" d="M5.5,13.5h3v-3h-3V13.5z"/>
<path id="path0_stroke_4_" d="M10.5,13.5h3v-3h-3V13.5z"/>
<path id="path0_stroke_5_" d="M15.5,13.5h3v-3h-3V13.5z"/>
<path id="path0_stroke_6_" d="M5.5,18.5h3v-3h-3V18.5z"/>
<path id="path0_stroke_7_" d="M10.5,18.5h3v-3h-3V18.5z"/>
</svg>
