<svg width="163" height="180" viewBox="0 0 163 180" version="1.1" xmlns="http://www.w3.org/2000/svg" xmlns:xlink="http://www.w3.org/1999/xlink" xmlns:figma="http://www.figma.com/figma/ns">
<title>splash-bg</title>
<desc>Created using Figma</desc>
<g id="Canvas" transform="translate(-597 -2865)" figma:type="canvas">
<g id="splash-bg" style="mix-blend-mode:normal;" figma:type="frame">
<g id="MULTIDO" style="mix-blend-mode:normal;" figma:type="text">
<use xlink:href="#path0_fill" transform="translate(583 2945.08)" fill="#FFFFFF" style="mix-blend-mode:normal;"/>
</g>
<g id="Multiplatform ToDo application" style="mix-blend-mode:normal;" figma:type="text">
<use xlink:href="#path1_fill" transform="translate(583 2979.13)" fill="#FFFFFF" style="mix-blend-mode:normal;"/>
</g>
<g id="MD-applogo" style="mix-blend-mode:normal;" figma:type="instance">
<g id="Group" style="mix-blend-mode:normal;" figma:type="frame">
<g id="Vector" style="mix-blend-mode:normal;" figma:type="vector">
<use xlink:href="#path2_fill" transform="translate(695.258 2889.59)" fill="#FFFFFF" style="mix-blend-mode:normal;"/>
</g>
<g id="Vector" style="mix-blend-mode:normal;" figma:type="vector">
<use xlink:href="#path3_fill" transform="translate(648.205 2865)" fill="#FFFFFF" style="mix-blend-mode:normal;"/>
</g>
<g id="Vector" style="mix-blend-mode:normal;" figma:type="vector">
<use xlink:href="#path4_fill" transform="translate(664.112 2865)" fill="#FFFFFF" style="mix-blend-mode:normal;"/>
</g>

<g id="Vector" style="mix-blend-mode:normal;" figma:type="vector">
<use xlink:href="#anim1" x="4" y="150" transform="translate(664.112 2865)" fill="#FFFFFF" style="mix-blend-mode:normal;"/>
<use xlink:href="#anim2" x="4" y="150"  transform="translate(664.112 2865)" fill="#FFFFFF" style="mix-blend-mode:normal;"/>
<use xlink:href="#anim3" x="4" y="150"  transform="translate(664.112 2865)" fill="#FFFFFF" style="mix-blend-mode:normal;"/>
</g>
</g>
</g>
</g>
</g>
<defs>
<path id="path0_fill" d="M 56.4682 26.04L 50.7842 26.04L 50.7842 19.628L 50.8682 13.412L 50.7842 13.412L 47.2002 26.04L 41.9922 26.04L 38.4642 13.412L 38.3522 13.412L 38.4362 19.628L 38.4362 26.04L 32.7242 26.04L 32.7242 7.56L 41.8522 7.56L 43.9802 15.764L 44.7922 19.208L 44.8482 19.208L 45.6602 15.764L 47.7882 7.56L 56.4682 7.56L 56.4682 26.04ZM 76.719 18.088C 76.719 23.576 73.7417 26.32 67.787 26.32C 61.8323 26.32 58.855 23.576 58.855 18.088L 58.855 7.56L 65.407 7.56L 65.407 18.592C 65.407 19.5253 65.603 20.2347 65.995 20.72C 66.4057 21.1867 67.003 21.42 67.787 21.42C 68.571 21.42 69.1683 21.1867 69.579 20.72C 69.9897 20.2347 70.195 19.5253 70.195 18.592L 70.195 7.56L 76.719 7.56L 76.719 18.088ZM 93.9952 21.252L 93.9952 26.04L 79.0992 26.04L 79.0992 7.56L 85.6232 7.56L 85.6232 21.252L 93.9952 21.252ZM 109.363 12.348L 103.595 12.348L 103.595 26.04L 97.0708 26.04L 97.0708 12.348L 91.2748 12.348L 91.2748 7.56L 109.363 7.56L 109.363 12.348ZM 117.834 26.04L 111.31 26.04L 111.31 7.56L 117.834 7.56L 117.834 26.04ZM 129.706 7.56C 132.581 7.56 134.756 8.36267 136.23 9.968C 137.724 11.5547 138.47 13.832 138.47 16.8C 138.47 19.768 137.724 22.0547 136.23 23.66C 134.756 25.2467 132.581 26.04 129.706 26.04L 120.634 26.04L 120.634 7.56L 129.706 7.56ZM 128.782 21.392C 129.94 21.392 130.733 21.0373 131.162 20.328C 131.592 19.6187 131.806 18.4427 131.806 16.8C 131.806 15.1573 131.592 13.9813 131.162 13.272C 130.733 12.5627 129.94 12.208 128.782 12.208L 127.158 12.208L 127.158 21.392L 128.782 21.392ZM 149.497 7.28C 152.447 7.28 154.743 8.12 156.385 9.8C 158.047 11.4613 158.877 13.7947 158.877 16.8C 158.877 19.8053 158.047 22.148 156.385 23.828C 154.743 25.4893 152.447 26.32 149.497 26.32C 147.556 26.32 145.876 25.9467 144.457 25.2C 143.057 24.4533 141.975 23.3707 141.209 21.952C 140.463 20.5147 140.089 18.7973 140.089 16.8C 140.089 14.8027 140.463 13.0947 141.209 11.676C 141.975 10.2387 143.057 9.14667 144.457 8.4C 145.876 7.65333 147.556 7.28 149.497 7.28ZM 149.497 12.18C 148.545 12.18 147.845 12.5533 147.397 13.3C 146.968 14.028 146.753 15.1947 146.753 16.8C 146.753 18.4053 146.968 19.5813 147.397 20.328C 147.845 21.056 148.545 21.42 149.497 21.42C 150.449 21.42 151.14 21.056 151.569 20.328C 151.999 19.5813 152.213 18.4053 152.213 16.8C 152.213 15.1947 151.999 14.028 151.569 13.3C 151.14 12.5533 150.449 12.18 149.497 12.18Z"/>
<path id="path1_fill" d="M 20.2837 8.37L 19.4017 8.37L 19.4017 4.932L 19.4647 3.294L 19.4557 3.294L 17.6467 8.37L 16.8457 8.37L 15.0367 3.294L 15.0277 3.294L 15.0997 4.932L 15.0997 8.37L 14.2087 8.37L 14.2087 2.43L 15.6397 2.43L 16.8367 5.868L 17.2507 7.281L 17.2687 7.281L 17.6917 5.868L 18.8797 2.43L 20.2837 2.43L 20.2837 8.37ZM 26.8553 3.87L 26.8553 8.37L 26.0003 8.37L 25.9643 7.641C 25.6583 8.187 25.1243 8.46 24.3623 8.46C 23.8763 8.46 23.4833 8.328 23.1833 8.064C 22.8893 7.794 22.7423 7.383 22.7423 6.831L 22.7423 3.87L 23.7053 3.87L 23.7053 6.579C 23.7053 6.975 23.7833 7.257 23.9393 7.425C 24.0953 7.587 24.3263 7.668 24.6323 7.668C 24.9983 7.668 25.2983 7.554 25.5323 7.326C 25.7723 7.092 25.8923 6.75 25.8923 6.3L 25.8923 3.87L 26.8553 3.87ZM 30.1866 7.056C 30.1866 7.278 30.2196 7.434 30.2856 7.524C 30.3516 7.608 30.4746 7.65 30.6546 7.65C 30.7686 7.65 30.8646 7.644 30.9426 7.632C 31.0266 7.614 31.1286 7.581 31.2486 7.533L 31.1406 8.307C 30.9366 8.409 30.6876 8.46 30.3936 8.46C 29.9916 8.46 29.6946 8.358 29.5026 8.154C 29.3166 7.95 29.2236 7.629 29.2236 7.191L 29.2236 1.845L 30.1866 1.845L 30.1866 7.056ZM 35.7033 8.073C 35.5593 8.193 35.3823 8.289 35.1723 8.361C 34.9683 8.427 34.7463 8.46 34.5063 8.46C 34.0923 8.46 33.7593 8.358 33.5073 8.154C 33.2613 7.944 33.1353 7.62 33.1293 7.182L 33.1293 4.626L 32.2743 4.626L 32.2743 3.87L 33.1293 3.87L 33.1293 2.817L 34.0923 2.547L 34.0923 3.87L 35.6673 3.87L 35.6673 4.626L 34.0923 4.626L 34.0923 7.02C 34.0923 7.236 34.1493 7.398 34.2633 7.506C 34.3833 7.608 34.5453 7.659 34.7493 7.659C 35.0253 7.659 35.2683 7.563 35.4783 7.371L 35.7033 8.073ZM 37.9878 3.114C 37.7838 3.114 37.6248 3.063 37.5108 2.961C 37.3968 2.853 37.3398 2.703 37.3398 2.511C 37.3398 2.319 37.3968 2.172 37.5108 2.07C 37.6248 1.968 37.7838 1.917 37.9878 1.917C 38.1918 1.917 38.3478 1.968 38.4558 2.07C 38.5698 2.172 38.6268 2.319 38.6268 2.511C 38.6268 2.703 38.5698 2.853 38.4558 2.961C 38.3478 3.063 38.1918 3.114 37.9878 3.114ZM 38.4648 8.37L 37.5018 8.37L 37.5018 3.87L 38.4648 3.87L 38.4648 8.37ZM 43.2925 3.78C 43.9105 3.78 44.3965 3.987 44.7505 4.401C 45.1045 4.809 45.2815 5.379 45.2815 6.111C 45.2815 6.843 45.1045 7.419 44.7505 7.839C 44.3965 8.253 43.9105 8.46 43.2925 8.46C 42.9685 8.46 42.6775 8.388 42.4195 8.244C 42.1675 8.1 41.9725 7.902 41.8345 7.65L 41.8345 10.26L 40.8715 10.26L 40.8715 3.87L 41.7175 3.87L 41.7625 4.707C 41.8945 4.425 42.0925 4.2 42.3565 4.032C 42.6265 3.864 42.9385 3.78 43.2925 3.78ZM 43.0765 7.677C 43.4665 7.677 43.7695 7.542 43.9855 7.272C 44.2075 6.996 44.3185 6.612 44.3185 6.12C 44.3185 5.628 44.2075 5.244 43.9855 4.968C 43.7695 4.692 43.4665 4.554 43.0765 4.554C 42.7105 4.554 42.4165 4.677 42.1945 4.923C 41.9785 5.169 41.8585 5.511 41.8345 5.949L 41.8345 6.291C 41.8585 6.723 41.9785 7.062 42.1945 7.308C 42.4165 7.554 42.7105 7.677 43.0765 7.677ZM 48.3677 7.056C 48.3677 7.278 48.4007 7.434 48.4667 7.524C 48.5327 7.608 48.6557 7.65 48.8357 7.65C 48.9497 7.65 49.0457 7.644 49.1237 7.632C 49.2077 7.614 49.3097 7.581 49.4297 7.533L 49.3217 8.307C 49.1177 8.409 48.8687 8.46 48.5747 8.46C 48.1727 8.46 47.8757 8.358 47.6837 8.154C 47.4977 7.95 47.4047 7.629 47.4047 7.191L 47.4047 1.845L 48.3677 1.845L 48.3677 7.056ZM 55.0322 7.74C 55.1642 7.74 55.2752 7.728 55.3652 7.704L 55.3022 8.352C 55.1402 8.424 54.9542 8.46 54.7442 8.46C 54.4862 8.46 54.2792 8.409 54.1232 8.307C 53.9732 8.205 53.8742 8.034 53.8262 7.794C 53.6882 8.004 53.4842 8.169 53.2142 8.289C 52.9442 8.403 52.6412 8.46 52.3052 8.46C 51.8672 8.46 51.5132 8.358 51.2432 8.154C 50.9732 7.95 50.8382 7.659 50.8382 7.281C 50.8382 6.927 50.9852 6.63 51.2792 6.39C 51.5732 6.144 52.0112 5.97 52.5932 5.868L 53.7362 5.67L 53.7362 5.427C 53.7362 5.151 53.6552 4.935 53.4932 4.779C 53.3312 4.617 53.1062 4.536 52.8182 4.536C 52.2242 4.536 51.8372 4.806 51.6572 5.346L 50.9102 4.95C 51.0182 4.59 51.2372 4.305 51.5672 4.095C 51.9032 3.885 52.3142 3.78 52.8002 3.78C 53.3822 3.78 53.8442 3.915 54.1862 4.185C 54.5282 4.455 54.6992 4.851 54.6992 5.373L 54.6992 7.407C 54.6992 7.521 54.7232 7.605 54.7712 7.659C 54.8252 7.713 54.9122 7.74 55.0322 7.74ZM 52.5122 7.731C 52.8362 7.731 53.1212 7.653 53.3672 7.497C 53.6132 7.341 53.7362 7.134 53.7362 6.876L 53.7362 6.336L 52.7552 6.534C 52.4432 6.594 52.2122 6.678 52.0622 6.786C 51.9122 6.894 51.8372 7.038 51.8372 7.218C 51.8372 7.386 51.8942 7.515 52.0082 7.605C 52.1282 7.689 52.2962 7.731 52.5122 7.731ZM 59.9172 8.073C 59.7732 8.193 59.5962 8.289 59.3862 8.361C 59.1822 8.427 58.9602 8.46 58.7202 8.46C 58.3062 8.46 57.9732 8.358 57.7212 8.154C 57.4752 7.944 57.3492 7.62 57.3432 7.182L 57.3432 4.626L 56.4882 4.626L 56.4882 3.87L 57.3432 3.87L 57.3432 2.817L 58.3062 2.547L 58.3062 3.87L 59.8812 3.87L 59.8812 4.626L 58.3062 4.626L 58.3062 7.02C 58.3062 7.236 58.3632 7.398 58.4772 7.506C 58.5972 7.608 58.7592 7.659 58.9632 7.659C 59.2392 7.659 59.4822 7.563 59.6922 7.371L 59.9172 8.073ZM 62.853 3.87L 64.311 3.87L 64.311 4.626L 62.88 4.626L 62.88 8.37L 61.917 8.37L 61.917 4.626L 61.071 4.626L 61.071 3.87L 61.917 3.87L 61.917 3.222C 61.917 2.766 62.055 2.412 62.331 2.16C 62.607 1.908 62.994 1.782 63.492 1.782C 63.672 1.782 63.837 1.803 63.987 1.845C 64.137 1.881 64.254 1.932 64.338 1.998L 64.158 2.7C 64.02 2.61 63.849 2.565 63.645 2.565C 63.117 2.565 62.853 2.808 62.853 3.294L 62.853 3.87ZM 67.9619 3.78C 68.6639 3.78 69.2129 3.987 69.6089 4.401C 70.0049 4.815 70.2029 5.388 70.2029 6.12C 70.2029 6.852 70.0049 7.425 69.6089 7.839C 69.2129 8.253 68.6639 8.46 67.9619 8.46C 67.2599 8.46 66.7109 8.253 66.3149 7.839C 65.9189 7.425 65.7209 6.852 65.7209 6.12C 65.7209 5.388 65.9189 4.815 66.3149 4.401C 66.7109 3.987 67.2599 3.78 67.9619 3.78ZM 67.9619 4.536C 67.5539 4.536 67.2389 4.674 67.0169 4.95C 66.8009 5.22 66.6929 5.61 66.6929 6.12C 66.6929 6.63 66.8009 7.023 67.0169 7.299C 67.2389 7.569 67.5539 7.704 67.9619 7.704C 68.3699 7.704 68.6849 7.566 68.9069 7.29C 69.1289 7.014 69.2399 6.624 69.2399 6.12C 69.2399 5.616 69.1289 5.226 68.9069 4.95C 68.6849 4.674 68.3699 4.536 67.9619 4.536ZM 74.6619 3.78C 74.8719 3.78 75.0369 3.81 75.1569 3.87L 75.0039 4.752C 74.8659 4.674 74.6769 4.635 74.4369 4.635C 74.2449 4.635 74.0619 4.686 73.8879 4.788C 73.7199 4.89 73.5789 5.043 73.4649 5.247C 73.3569 5.451 73.3029 5.697 73.3029 5.985L 73.3029 8.37L 72.3399 8.37L 72.3399 3.87L 73.1589 3.87L 73.2399 4.68C 73.4919 4.08 73.9659 3.78 74.6619 3.78ZM 82.3934 3.78C 82.6934 3.78 82.9694 3.843 83.2214 3.969C 83.4734 4.089 83.6744 4.275 83.8244 4.527C 83.9744 4.779 84.0494 5.088 84.0494 5.454L 84.0494 8.37L 83.0864 8.37L 83.0864 5.607C 83.0864 5.253 83.0024 4.992 82.8344 4.824C 82.6664 4.656 82.4414 4.572 82.1594 4.572C 81.8294 4.572 81.5504 4.692 81.3224 4.932C 81.1004 5.172 80.9894 5.502 80.9894 5.922L 80.9894 8.37L 80.0264 8.37L 80.0264 5.607C 80.0264 5.253 79.9424 4.992 79.7744 4.824C 79.6064 4.656 79.3814 4.572 79.0994 4.572C 78.9074 4.572 78.7214 4.623 78.5414 4.725C 78.3614 4.821 78.2144 4.974 78.1004 5.184C 77.9864 5.394 77.9294 5.658 77.9294 5.976L 77.9294 8.37L 76.9664 8.37L 76.9664 3.87L 77.8214 3.87L 77.8664 4.617C 78.0164 4.341 78.2204 4.134 78.4784 3.996C 78.7364 3.852 79.0184 3.78 79.3244 3.78C 79.6604 3.78 79.9634 3.858 80.2334 4.014C 80.5094 4.164 80.7134 4.386 80.8454 4.68C 80.9834 4.386 81.1934 4.164 81.4754 4.014C 81.7634 3.858 82.0694 3.78 82.3934 3.78ZM 94.5792 3.258L 92.5452 3.258L 92.5452 8.37L 91.5822 8.37L 91.5822 3.258L 89.5482 3.258L 89.5482 2.43L 94.5792 2.43L 94.5792 3.258ZM 97.5458 3.78C 98.2478 3.78 98.7968 3.987 99.1928 4.401C 99.5888 4.815 99.7868 5.388 99.7868 6.12C 99.7868 6.852 99.5888 7.425 99.1928 7.839C 98.7968 8.253 98.2478 8.46 97.5458 8.46C 96.8438 8.46 96.2948 8.253 95.8988 7.839C 95.5028 7.425 95.3048 6.852 95.3048 6.12C 95.3048 5.388 95.5028 4.815 95.8988 4.401C 96.2948 3.987 96.8438 3.78 97.5458 3.78ZM 97.5458 4.536C 97.1378 4.536 96.8228 4.674 96.6008 4.95C 96.3848 5.22 96.2768 5.61 96.2768 6.12C 96.2768 6.63 96.3848 7.023 96.6008 7.299C 96.8228 7.569 97.1378 7.704 97.5458 7.704C 97.9538 7.704 98.2688 7.566 98.4908 7.29C 98.7128 7.014 98.8238 6.624 98.8238 6.12C 98.8238 5.616 98.7128 5.226 98.4908 4.95C 98.2688 4.674 97.9538 4.536 97.5458 4.536ZM 104.094 2.43C 105.03 2.43 105.756 2.688 106.272 3.204C 106.788 3.72 107.046 4.452 107.046 5.4C 107.046 6.348 106.788 7.08 106.272 7.596C 105.756 8.112 105.03 8.37 104.094 8.37L 101.997 8.37L 101.997 2.43L 104.094 2.43ZM 104.094 7.551C 104.718 7.551 105.198 7.365 105.534 6.993C 105.87 6.615 106.038 6.084 106.038 5.4C 106.038 4.716 105.87 4.188 105.534 3.816C 105.198 3.438 104.718 3.249 104.094 3.249L 102.96 3.249L 102.96 7.551L 104.094 7.551ZM 111.22 3.78C 111.922 3.78 112.471 3.987 112.867 4.401C 113.263 4.815 113.461 5.388 113.461 6.12C 113.461 6.852 113.263 7.425 112.867 7.839C 112.471 8.253 111.922 8.46 111.22 8.46C 110.518 8.46 109.969 8.253 109.573 7.839C 109.177 7.425 108.979 6.852 108.979 6.12C 108.979 5.388 109.177 4.815 109.573 4.401C 109.969 3.987 110.518 3.78 111.22 3.78ZM 111.22 4.536C 110.812 4.536 110.497 4.674 110.275 4.95C 110.059 5.22 109.951 5.61 109.951 6.12C 109.951 6.63 110.059 7.023 110.275 7.299C 110.497 7.569 110.812 7.704 111.22 7.704C 111.628 7.704 111.943 7.566 112.165 7.29C 112.387 7.014 112.498 6.624 112.498 6.12C 112.498 5.616 112.387 5.226 112.165 4.95C 111.943 4.674 111.628 4.536 111.22 4.536ZM 123.313 7.74C 123.445 7.74 123.556 7.728 123.646 7.704L 123.583 8.352C 123.421 8.424 123.235 8.46 123.025 8.46C 122.767 8.46 122.56 8.409 122.404 8.307C 122.254 8.205 122.155 8.034 122.107 7.794C 121.969 8.004 121.765 8.169 121.495 8.289C 121.225 8.403 120.922 8.46 120.586 8.46C 120.148 8.46 119.794 8.358 119.524 8.154C 119.254 7.95 119.119 7.659 119.119 7.281C 119.119 6.927 119.266 6.63 119.56 6.39C 119.854 6.144 120.292 5.97 120.874 5.868L 122.017 5.67L 122.017 5.427C 122.017 5.151 121.936 4.935 121.774 4.779C 121.612 4.617 121.387 4.536 121.099 4.536C 120.505 4.536 120.118 4.806 119.938 5.346L 119.191 4.95C 119.299 4.59 119.518 4.305 119.848 4.095C 120.184 3.885 120.595 3.78 121.081 3.78C 121.663 3.78 122.125 3.915 122.467 4.185C 122.809 4.455 122.98 4.851 122.98 5.373L 122.98 7.407C 122.98 7.521 123.004 7.605 123.052 7.659C 123.106 7.713 123.193 7.74 123.313 7.74ZM 120.793 7.731C 121.117 7.731 121.402 7.653 121.648 7.497C 121.894 7.341 122.017 7.134 122.017 6.876L 122.017 6.336L 121.036 6.534C 120.724 6.594 120.493 6.678 120.343 6.786C 120.193 6.894 120.118 7.038 120.118 7.218C 120.118 7.386 120.175 7.515 120.289 7.605C 120.409 7.689 120.577 7.731 120.793 7.731ZM 127.878 3.78C 128.496 3.78 128.982 3.987 129.336 4.401C 129.69 4.809 129.867 5.379 129.867 6.111C 129.867 6.843 129.69 7.419 129.336 7.839C 128.982 8.253 128.496 8.46 127.878 8.46C 127.554 8.46 127.263 8.388 127.005 8.244C 126.753 8.1 126.558 7.902 126.42 7.65L 126.42 10.26L 125.457 10.26L 125.457 3.87L 126.303 3.87L 126.348 4.707C 126.48 4.425 126.678 4.2 126.942 4.032C 127.212 3.864 127.524 3.78 127.878 3.78ZM 127.662 7.677C 128.052 7.677 128.355 7.542 128.571 7.272C 128.793 6.996 128.904 6.612 128.904 6.12C 128.904 5.628 128.793 5.244 128.571 4.968C 128.355 4.692 128.052 4.554 127.662 4.554C 127.296 4.554 127.002 4.677 126.78 4.923C 126.564 5.169 126.444 5.511 126.42 5.949L 126.42 6.291C 126.444 6.723 126.564 7.062 126.78 7.308C 127.002 7.554 127.296 7.677 127.662 7.677ZM 134.439 3.78C 135.057 3.78 135.543 3.987 135.897 4.401C 136.251 4.809 136.428 5.379 136.428 6.111C 136.428 6.843 136.251 7.419 135.897 7.839C 135.543 8.253 135.057 8.46 134.439 8.46C 134.115 8.46 133.824 8.388 133.566 8.244C 133.314 8.1 133.119 7.902 132.981 7.65L 132.981 10.26L 132.018 10.26L 132.018 3.87L 132.864 3.87L 132.909 4.707C 133.041 4.425 133.239 4.2 133.503 4.032C 133.773 3.864 134.085 3.78 134.439 3.78ZM 134.223 7.677C 134.613 7.677 134.916 7.542 135.132 7.272C 135.354 6.996 135.465 6.612 135.465 6.12C 135.465 5.628 135.354 5.244 135.132 4.968C 134.916 4.692 134.613 4.554 134.223 4.554C 133.857 4.554 133.563 4.677 133.341 4.923C 133.125 5.169 133.005 5.511 132.981 5.949L 132.981 6.291C 133.005 6.723 133.125 7.062 133.341 7.308C 133.563 7.554 133.857 7.677 134.223 7.677ZM 139.514 7.056C 139.514 7.278 139.547 7.434 139.613 7.524C 139.679 7.608 139.802 7.65 139.982 7.65C 140.096 7.65 140.192 7.644 140.27 7.632C 140.354 7.614 140.456 7.581 140.576 7.533L 140.468 8.307C 140.264 8.409 140.015 8.46 139.721 8.46C 139.319 8.46 139.022 8.358 138.83 8.154C 138.644 7.95 138.551 7.629 138.551 7.191L 138.551 1.845L 139.514 1.845L 139.514 7.056ZM 142.767 3.114C 142.563 3.114 142.404 3.063 142.29 2.961C 142.176 2.853 142.119 2.703 142.119 2.511C 142.119 2.319 142.176 2.172 142.29 2.07C 142.404 1.968 142.563 1.917 142.767 1.917C 142.971 1.917 143.127 1.968 143.235 2.07C 143.349 2.172 143.406 2.319 143.406 2.511C 143.406 2.703 143.349 2.853 143.235 2.961C 143.127 3.063 142.971 3.114 142.767 3.114ZM 143.244 8.37L 142.281 8.37L 142.281 3.87L 143.244 3.87L 143.244 8.37ZM 147.631 3.78C 148.615 3.78 149.266 4.2 149.584 5.04L 148.684 5.4C 148.528 4.83 148.177 4.545 147.631 4.545C 147.229 4.545 146.917 4.683 146.695 4.959C 146.473 5.235 146.362 5.625 146.362 6.129C 146.362 6.633 146.473 7.02 146.695 7.29C 146.917 7.56 147.229 7.695 147.631 7.695C 147.937 7.695 148.183 7.62 148.369 7.47C 148.555 7.32 148.678 7.104 148.738 6.822L 149.62 7.119C 149.488 7.539 149.254 7.869 148.918 8.109C 148.582 8.343 148.159 8.46 147.649 8.46C 146.941 8.46 146.386 8.253 145.984 7.839C 145.588 7.425 145.39 6.852 145.39 6.12C 145.39 5.388 145.588 4.815 145.984 4.401C 146.38 3.987 146.929 3.78 147.631 3.78ZM 155.537 7.74C 155.669 7.74 155.78 7.728 155.87 7.704L 155.807 8.352C 155.645 8.424 155.459 8.46 155.249 8.46C 154.991 8.46 154.784 8.409 154.628 8.307C 154.478 8.205 154.379 8.034 154.331 7.794C 154.193 8.004 153.989 8.169 153.719 8.289C 153.449 8.403 153.146 8.46 152.81 8.46C 152.372 8.46 152.018 8.358 151.748 8.154C 151.478 7.95 151.343 7.659 151.343 7.281C 151.343 6.927 151.49 6.63 151.784 6.39C 152.078 6.144 152.516 5.97 153.098 5.868L 154.241 5.67L 154.241 5.427C 154.241 5.151 154.16 4.935 153.998 4.779C 153.836 4.617 153.611 4.536 153.323 4.536C 152.729 4.536 152.342 4.806 152.162 5.346L 151.415 4.95C 151.523 4.59 151.742 4.305 152.072 4.095C 152.408 3.885 152.819 3.78 153.305 3.78C 153.887 3.78 154.349 3.915 154.691 4.185C 155.033 4.455 155.204 4.851 155.204 5.373L 155.204 7.407C 155.204 7.521 155.228 7.605 155.276 7.659C 155.33 7.713 155.417 7.74 155.537 7.74ZM 153.017 7.731C 153.341 7.731 153.626 7.653 153.872 7.497C 154.118 7.341 154.241 7.134 154.241 6.876L 154.241 6.336L 153.26 6.534C 152.948 6.594 152.717 6.678 152.567 6.786C 152.417 6.894 152.342 7.038 152.342 7.218C 152.342 7.386 152.399 7.515 152.513 7.605C 152.633 7.689 152.801 7.731 153.017 7.731ZM 160.422 8.073C 160.278 8.193 160.101 8.289 159.891 8.361C 159.687 8.427 159.465 8.46 159.225 8.46C 158.811 8.46 158.478 8.358 158.226 8.154C 157.98 7.944 157.854 7.62 157.848 7.182L 157.848 4.626L 156.993 4.626L 156.993 3.87L 157.848 3.87L 157.848 2.817L 158.811 2.547L 158.811 3.87L 160.386 3.87L 160.386 4.626L 158.811 4.626L 158.811 7.02C 158.811 7.236 158.868 7.398 158.982 7.506C 159.102 7.608 159.264 7.659 159.468 7.659C 159.744 7.659 159.987 7.563 160.197 7.371L 160.422 8.073ZM 162.706 3.114C 162.502 3.114 162.343 3.063 162.229 2.961C 162.115 2.853 162.058 2.703 162.058 2.511C 162.058 2.319 162.115 2.172 162.229 2.07C 162.343 1.968 162.502 1.917 162.706 1.917C 162.91 1.917 163.066 1.968 163.174 2.07C 163.288 2.172 163.345 2.319 163.345 2.511C 163.345 2.703 163.288 2.853 163.174 2.961C 163.066 3.063 162.91 3.114 162.706 3.114ZM 163.183 8.37L 162.22 8.37L 162.22 3.87L 163.183 3.87L 163.183 8.37ZM 167.57 3.78C 168.272 3.78 168.821 3.987 169.217 4.401C 169.613 4.815 169.811 5.388 169.811 6.12C 169.811 6.852 169.613 7.425 169.217 7.839C 168.821 8.253 168.272 8.46 167.57 8.46C 166.868 8.46 166.319 8.253 165.923 7.839C 165.527 7.425 165.329 6.852 165.329 6.12C 165.329 5.388 165.527 4.815 165.923 4.401C 166.319 3.987 166.868 3.78 167.57 3.78ZM 167.57 4.536C 167.162 4.536 166.847 4.674 166.625 4.95C 166.409 5.22 166.301 5.61 166.301 6.12C 166.301 6.63 166.409 7.023 166.625 7.299C 166.847 7.569 167.162 7.704 167.57 7.704C 167.978 7.704 168.293 7.566 168.515 7.29C 168.737 7.014 168.848 6.624 168.848 6.12C 168.848 5.616 168.737 5.226 168.515 4.95C 168.293 4.674 167.978 4.536 167.57 4.536ZM 174.369 3.78C 174.867 3.78 175.272 3.924 175.584 4.212C 175.902 4.5 176.061 4.914 176.061 5.454L 176.061 8.37L 175.098 8.37L 175.098 5.76C 175.098 4.968 174.777 4.572 174.135 4.572C 173.799 4.572 173.511 4.689 173.271 4.923C 173.031 5.151 172.911 5.505 172.911 5.985L 172.911 8.37L 171.948 8.37L 171.948 3.87L 172.803 3.87L 172.848 4.617C 172.998 4.335 173.205 4.125 173.469 3.987C 173.733 3.849 174.033 3.78 174.369 3.78Z"/>
<path id="path2_fill" d="M 0 36.9219L 12.3823 36.9219L 12.3823 -2.00708e-06L 0 12.4091L 0 36.9219Z"/>
<path id="path3_fill" d="M 10.5695 10.5911L 0 1.06034e-06L 0 14.979L 0 61.513L 12.3823 61.513L 12.3823 30.0175L 12.3749 30.0088L 12.3823 30.0014L 12.3823 29.958L 12.4046 29.9803L 21.2146 21.2604L 10.5695 10.5911Z"/>
<path id="path4_fill" d="M 32.9604 10.5911L 13.8112 29.7817L 8.81001 24.771L 8.31331e-07 33.4896L 9.43284 42.9428L 13.8112 47.3306L 18.1884 42.9428L 31.1464 29.9567L 31.1464 29.9815L 43.5287 17.5725L 43.5287 14.979L 43.5287 1.06034e-06L 32.9604 10.5911Z"/>

<rect id="anim1" x="0" y="10" width="4" height="10" fill="#FFF" opacity="0.2">
  <animate attributeName="opacity" attributeType="XML" values="0.2; 1; .2" begin="0s" dur="0.6s" repeatCount="indefinite" />
  <animate attributeName="height" attributeType="XML" values="10; 20; 10" begin="0s" dur="0.6s" repeatCount="indefinite" />
  <animate attributeName="y" attributeType="XML" values="10; 5; 10" begin="0s" dur="0.6s" repeatCount="indefinite" />
</rect>
<rect id="anim2" x="8" y="10" width="4" height="10" fill="#FFF"  opacity="0.2">
  <animate attributeName="opacity" attributeType="XML" values="0.2; 1; .2" begin="0.15s" dur="0.6s" repeatCount="indefinite" />
  <animate attributeName="height" attributeType="XML" values="10; 20; 10" begin="0.15s" dur="0.6s" repeatCount="indefinite" />
  <animate attributeName="y" attributeType="XML" values="10; 5; 10" begin="0.15s" dur="0.6s" repeatCount="indefinite" />
</rect>
<rect id="anim3" x="16" y="10" width="4" height="10" fill="#FFF"  opacity="0.2">
  <animate attributeName="opacity" attributeType="XML" values="0.2; 1; .2" begin="0.3s" dur="0.6s" repeatCount="indefinite" />
  <animate attributeName="height" attributeType="XML" values="10; 20; 10" begin="0.3s" dur="0.6s" repeatCount="indefinite" />
  <animate attributeName="y" attributeType="XML" values="10; 5; 10" begin="0.3s" dur="0.6s" repeatCount="indefinite" />
</rect>

</defs>
</svg>
