<svg width="23" height="23" viewBox="0 0 23 23" version="1.1" xmlns="http://www.w3.org/2000/svg" xmlns:xlink="http://www.w3.org/1999/xlink" xmlns:figma="http://www.figma.com/figma/ns">
<title>WINunmaximize</title>
<desc>Created using Figma</desc>
<g id="Canvas" transform="translate(638 957)" figma:type="canvas">
<g id="WINunmaximize" style="mix-blend-mode:normal;" figma:type="instance">
<g id="Group" style="mix-blend-mode:normal;" figma:type="frame">
<g id="Rectangle 12" style="mix-blend-mode:normal;" figma:type="rounded-rectangle">
<mask id="mask0_outline_ins">
<use xlink:href="#path0_fill" fill="white" transform="translate(-630 -947)"/>
</mask>
<g mask="url(#mask0_outline_ins)">
<use xlink:href="#path1_stroke_2x" transform="translate(-630 -947)" fill="#FFFFFF" style="mix-blend-mode:normal;"/>
</g>
</g>
<g id="Vector 8" style="mix-blend-mode:normal;" figma:type="vector">
<use xlink:href="#path2_stroke" transform="translate(-627 -948.5)" fill="#FFFFFF" style="mix-blend-mode:normal;"/>
</g>
</g>
</g>
</g>
<defs>
<path id="path0_fill" d="M 0 0L 6 0L 6 5L 0 5L 0 0Z"/>
<path id="path1_stroke_2x" d="M 0 0L 0 -1L -1 -1L -1 0L 0 0ZM 6 0L 7 0L 7 -1L 6 -1L 6 0ZM 6 5L 6 6L 7 6L 7 5L 6 5ZM 0 5L -1 5L -1 6L 0 6L 0 5ZM 0 1L 6 1L 6 -1L 0 -1L 0 1ZM 5 0L 5 5L 7 5L 7 0L 5 0ZM 6 4L 0 4L 0 6L 6 6L 6 4ZM 1 5L 1 0L -1 0L -1 5L 1 5Z"/>
<path id="path2_stroke" d="M 4.5 0L 5 0L 5 -0.5L 4.5 -0.5L 4.5 0ZM 0 0.5L 4.5 0.5L 4.5 -0.5L 0 -0.5L 0 0.5ZM 4 0L 4 4.5L 5 4.5L 5 0L 4 0Z"/>
</defs>
</svg>
